{
	"schemaVersion": 1,
	"id": "reforged",
	"version": "${version}",
	"name": "Reforged",
	"description": "This is an example description! Tell everyone what your mod is about!",
	"authors": [
		"Me!"
	],
	"contact": {
		"homepage": "https://fabricmc.net/",
		"sources": "https://github.com/FabricMC/fabric-example-mod"
	},
	"license": "CC0-1.0",
	"icon": "assets/reforged/icon.png",
	"environment": "*",
	"entrypoints": {
		"main": [
			"silverclaw.reforged.ReforgedMod"
		],
		"client": [
			"silverclaw.reforged.ReforgedClient"
		]
	},
	"depends": {
		"fabricloader": ">=0.7.4",
		"fabric": "*",
		"minecraft": "1.15.x"
	},
	"suggests": {
		"flamingo": "*"
	}
}
