{
	"result": {
		"item": "reforged:greataxe_diamond"
	},
	"pattern": [
		"BBB",
		"BHB",
		" H "
	],
	"type": "minecraft:crafting_shaped",
	"key": {
		"B": {
			"item": "minecraft:diamond"
		},
		"H": {
			"item": "minecraft:stick"
		}
	}
}
