{
	"result": {
		"item": "reforged:knife_gold"
	},
	"pattern": [
		"B",
		"H"
	],
	"type": "minecraft:crafting_shaped",
	"key": {
		"B": {
			"item": "minecraft:gold_ingot"
		},
		"H": {
			"item": "minecraft:stick"
		}
	}
}
