{
    "parent": "reforged:builtin/generated",
    "textures": {
        "layer0": "reforged:item/firerod"
    },
    "display": {
        "thirdperson_righthand": {
            "rotation": [ 360, 270, 316 ],
            "translation": [ 0.00, 4.00, 0.00 ],
            "scale": [ 0.85, 0.85, 0.85 ]
        },
        "firstperson_righthand": {
            "rotation": [ 170, 271, 168 ],
            "translation": [ 4.25, 1.00, 2.00 ],
            "scale": [ 1.80, 1.80, 1.80 ]
        },
        "thirdperson_lefthand": {
            "rotation": [ -360, -270, -316 ],
            "translation": [ 0.00, 4.00, 0.00 ],
            "scale": [ 0.85, 0.85, 0.85 ]
        },
        "firstperson_lefthand": {
            "rotation": [ 2, 89, 0 ],
            "translation": [ 4.25, 1.00, 2.00 ],
            "scale": [ 1.80, 1.80, 1.80 ]
        }
    }
}